…
> plot(lm.resumen)
Hit <Return> to see next plot: 
Hit <Return> to see next plot: 
Hit <Return> to see next plot: 
Hit <Return> to see next plot: 
> 
> plot(lm.resumen)
Hit <Return> to see next plot: 
Hit <Return> to see next plot: 
Hit <Return> to see next plot: 
Hit <Return> to see next plot: 
> 
> pairlist(Hospedaje)
[[1]]
# A tibble: 1,189 x 5
    id_host   lat  long capacity price
      <dbl> <dbl> <dbl>    <dbl> <dbl>
 1 10022137  21.0 -101.        2  490.
 2 10022171  21.0 -101.        3  453.
 3 10022200  21.0 -101.        4  671.
 4 10023033  21.0 -101.        2  451.
 5   102877  21.0 -101.        4 2118.
 6  1032843  21.0 -101.        7  200 
 7 10390169  21.0 -101.        4  492.
 8 10494759  21.0 -101.        4  467.
 9 10564399  21.0 -101.        6 1090.
10 10594656  21.0 -101.        2  381.
# ... with 1,179 more rows
…
